<?xml version='1.0' encoding='UTF-8'?>
<glyph name="Abreve" format="2">
  <advance width="468"/>
  <unicode hex="0102"/>
  <outline>
    <component base="A"/>
    <component base="uni0306" xOffset="68" yOffset="230"/>
  </outline>
  <lib>
    <dict>
      <key>com.schriftgestaltung.Glyphs.lastChange</key>
      <string>2024-06-19 07:50:30 +0000</string>
      <key>public.markColor</key>
      <string>0.67,0.95,0.38,1</string>
    </dict>
  </lib>
</glyph>
