<?xml version='1.0' encoding='UTF-8'?>
<glyph name="bar" format="2">
  <advance width="220"/>
  <unicode hex="007C"/>
  <guideline x="102" y="-40"/>
  <outline>
    <contour>
      <point x="60" y="700" type="line"/>
      <point x="60" y="-40" type="line"/>
      <point x="160" y="-40" type="line"/>
      <point x="160" y="700" type="line"/>
    </contour>
  </outline>
  <lib>
    <dict>
      <key>com.schriftgestaltung.Glyphs.lastChange</key>
      <string>2024-06-12 15:26:30 +0000</string>
      <key>public.markColor</key>
      <string>0.67,0.95,0.38,1</string>
    </dict>
  </lib>
</glyph>
