<?xml version='1.0' encoding='UTF-8'?>
<glyph name="Hbar" format="2">
  <advance width="512"/>
  <unicode hex="0126"/>
  <outline>
    <contour>
      <point x="336" y="0" type="line"/>
      <point x="456" y="0" type="line"/>
      <point x="456" y="700" type="line"/>
      <point x="336" y="700" type="line"/>
    </contour>
    <contour>
      <point x="56" y="0" type="line"/>
      <point x="176" y="0" type="line"/>
      <point x="176" y="700" type="line"/>
      <point x="56" y="700" type="line"/>
    </contour>
    <contour>
      <point x="124" y="380" type="line"/>
      <point x="381" y="380" type="line"/>
      <point x="381" y="470" type="line"/>
      <point x="124" y="470" type="line"/>
    </contour>
    <contour>
      <point x="16" y="560" type="line"/>
      <point x="496" y="560" type="line"/>
      <point x="496" y="620" type="line"/>
      <point x="16" y="620" type="line"/>
    </contour>
  </outline>
  <lib>
    <dict>
      <key>com.schriftgestaltung.Glyphs.lastChange</key>
      <string>2024-06-19 06:09:39 +0000</string>
      <key>public.markColor</key>
      <string>0.67,0.95,0.38,1</string>
    </dict>
  </lib>
</glyph>
