<?xml version='1.0' encoding='UTF-8'?>
<glyph name="lcaron" format="2">
  <advance width="322"/>
  <unicode hex="013E"/>
  <outline>
    <component base="l" identifier="FC45C854"/>
    <component base="uni030C.alt" xOffset="197" yOffset="-10" identifier="D306C8EE"/>
  </outline>
  <lib>
    <dict>
      <key>com.schriftgestaltung.Glyphs.lastChange</key>
      <string>2024-06-19 06:01:47 +0000</string>
      <key>public.markColor</key>
      <string>0.67,0.95,0.38,1</string>
      <key>public.objectLibs</key>
      <dict>
        <key>D306C8EE</key>
        <dict>
          <key>com.schriftgestaltung.alignment</key>
          <integer>-1</integer>
        </dict>
        <key>FC45C854</key>
        <dict>
          <key>com.schriftgestaltung.alignment</key>
          <integer>-1</integer>
        </dict>
      </dict>
    </dict>
  </lib>
</glyph>
