<?xml version='1.0' encoding='UTF-8'?>
<glyph name="oslash" format="2">
  <advance width="446"/>
  <unicode hex="00F8"/>
  <outline>
    <contour>
      <point x="223" y="480" type="curve" smooth="yes"/>
      <point x="111" y="480"/>
      <point x="24" y="412"/>
      <point x="24" y="235" type="curve" smooth="yes"/>
      <point x="24" y="81"/>
      <point x="89" y="-10"/>
      <point x="223" y="-10" type="curve" smooth="yes"/>
      <point x="357" y="-10"/>
      <point x="422" y="81"/>
      <point x="422" y="235" type="curve" smooth="yes"/>
      <point x="422" y="412"/>
      <point x="335" y="480"/>
    </contour>
    <contour>
      <point x="138" y="235" type="curve" smooth="yes"/>
      <point x="138" y="346"/>
      <point x="170" y="400"/>
      <point x="223" y="400" type="curve" smooth="yes"/>
      <point x="276" y="400"/>
      <point x="308" y="346"/>
      <point x="308" y="235" type="curve" smooth="yes"/>
      <point x="308" y="127"/>
      <point x="278" y="70"/>
      <point x="223" y="70" type="curve" smooth="yes"/>
      <point x="168" y="70"/>
      <point x="138" y="127"/>
    </contour>
    <contour>
      <point x="130" y="-48" type="line"/>
      <point x="371" y="493" type="line"/>
      <point x="316" y="517" type="line"/>
      <point x="75" y="-23" type="line"/>
    </contour>
  </outline>
  <lib>
    <dict>
      <key>com.schriftgestaltung.Glyphs.lastChange</key>
      <string>2024-06-18 14:27:59 +0000</string>
      <key>com.schriftgestaltung.Glyphs.leftMetricsKey</key>
      <string>o</string>
      <key>com.schriftgestaltung.Glyphs.rightMetricsKey</key>
      <string>o</string>
      <key>public.markColor</key>
      <string>0.67,0.95,0.38,1</string>
    </dict>
  </lib>
</glyph>
