<?xml version='1.0' encoding='UTF-8'?>
<glyph name="uni0219" format="2">
  <advance width="416"/>
  <unicode hex="0219"/>
  <outline>
    <component base="s"/>
    <component base="uni0326" xOffset="132"/>
  </outline>
  <lib>
    <dict>
      <key>com.schriftgestaltung.Glyphs.lastChange</key>
      <string>2024-06-19 07:54:37 +0000</string>
      <key>public.markColor</key>
      <string>0.67,0.95,0.38,1</string>
    </dict>
  </lib>
</glyph>
