<?xml version='1.0' encoding='UTF-8'?>
<glyph name="amacron" format="2">
  <advance width="473"/>
  <unicode hex="0101"/>
  <outline>
    <component base="a"/>
    <component base="uni0304" xOffset="47"/>
  </outline>
  <lib>
    <dict>
      <key>com.schriftgestaltung.Glyphs.lastChange</key>
      <string>2024-06-19 07:53:22 +0000</string>
      <key>public.markColor</key>
      <string>0.67,0.95,0.38,1</string>
    </dict>
  </lib>
</glyph>
