<?xml version='1.0' encoding='UTF-8'?>
<glyph name="asterisk" format="2">
  <advance width="328"/>
  <unicode hex="002A"/>
  <guideline x="158" y="600" angle="90"/>
  <outline>
    <contour>
      <point x="129" y="700" type="line"/>
      <point x="129" y="561" type="line"/>
      <point x="194" y="561" type="line"/>
      <point x="194" y="700" type="line"/>
    </contour>
    <contour>
      <point x="47" y="640" type="line"/>
      <point x="26" y="578" type="line"/>
      <point x="150" y="538" type="line"/>
      <point x="170" y="600" type="line"/>
    </contour>
    <contour>
      <point x="56" y="479" type="line"/>
      <point x="108" y="440" type="line"/>
      <point x="190" y="553" type="line"/>
      <point x="137" y="591" type="line"/>
    </contour>
    <contour>
      <point x="281" y="640" type="line"/>
      <point x="158" y="600" type="line"/>
      <point x="178" y="538" type="line"/>
      <point x="302" y="578" type="line"/>
    </contour>
    <contour>
      <point x="272" y="479" type="line"/>
      <point x="191" y="591" type="line"/>
      <point x="138" y="553" type="line"/>
      <point x="220" y="440" type="line"/>
    </contour>
  </outline>
  <lib>
    <dict>
      <key>com.schriftgestaltung.Glyphs.lastChange</key>
      <string>2024-06-18 12:45:27 +0000</string>
      <key>public.markColor</key>
      <string>0.67,0.95,0.38,1</string>
    </dict>
  </lib>
</glyph>
