<?xml version='1.0' encoding='UTF-8'?>
<glyph name="Oacute" format="2">
  <advance width="582"/>
  <unicode hex="00D3"/>
  <outline>
    <component base="O"/>
    <component base="acutecomb" xOffset="221" yOffset="230"/>
  </outline>
  <lib>
    <dict>
      <key>com.schriftgestaltung.Glyphs.lastChange</key>
      <string>2024-06-19 06:09:39 +0000</string>
      <key>public.markColor</key>
      <string>0.67,0.95,0.38,1</string>
    </dict>
  </lib>
</glyph>
