<?xml version='1.0' encoding='UTF-8'?>
<glyph name="odieresis" format="2">
  <advance width="500"/>
  <unicode hex="00F6"/>
  <outline>
    <component base="o"/>
    <component base="uni0308" xOffset="84"/>
  </outline>
  <lib>
    <dict>
      <key>com.schriftgestaltung.Glyphs.lastChange</key>
      <string>2024-06-18 14:27:59 +0000</string>
      <key>public.markColor</key>
      <string>0.67,0.95,0.38,1</string>
    </dict>
  </lib>
</glyph>
