<?xml version='1.0' encoding='UTF-8'?>
<glyph name="six" format="2">
  <advance width="532"/>
  <unicode hex="0036"/>
  <outline>
    <contour>
      <point x="266" y="70" type="curve"/>
      <point x="266" y="-10" type="line"/>
      <point x="426" y="-10"/>
      <point x="492" y="38"/>
      <point x="492" y="132" type="curve"/>
      <point x="352" y="132" type="line"/>
      <point x="352" y="85"/>
      <point x="306" y="70"/>
    </contour>
    <contour>
      <point x="492" y="132" type="line"/>
      <point x="492" y="298" type="line"/>
      <point x="352" y="298" type="line"/>
      <point x="352" y="132" type="line"/>
    </contour>
    <contour>
      <point x="492" y="510" type="line"/>
      <point x="492" y="570" type="line"/>
      <point x="352" y="570" type="line"/>
      <point x="352" y="510" type="line"/>
    </contour>
    <contour>
      <point x="266" y="-10" type="curve"/>
      <point x="266" y="70" type="line"/>
      <point x="226" y="70"/>
      <point x="180" y="85"/>
      <point x="180" y="132" type="curve"/>
      <point x="40" y="132" type="line"/>
      <point x="40" y="38"/>
      <point x="106" y="-10"/>
    </contour>
    <contour>
      <point x="40" y="132" type="line"/>
      <point x="180" y="132" type="line"/>
      <point x="180" y="308" type="line"/>
      <point x="40" y="308" type="line"/>
    </contour>
    <contour>
      <point x="266" y="710" type="curve"/>
      <point x="266" y="630" type="line"/>
      <point x="306" y="630"/>
      <point x="352" y="617"/>
      <point x="352" y="570" type="curve"/>
      <point x="492" y="570" type="line"/>
      <point x="492" y="664"/>
      <point x="426" y="710"/>
    </contour>
    <contour>
      <point x="266" y="630" type="curve"/>
      <point x="266" y="710" type="line"/>
      <point x="106" y="710"/>
      <point x="40" y="664"/>
      <point x="40" y="570" type="curve"/>
      <point x="180" y="570" type="line"/>
      <point x="180" y="617"/>
      <point x="226" y="630"/>
    </contour>
    <contour>
      <point x="180" y="308" type="line"/>
      <point x="180" y="570" type="line"/>
      <point x="40" y="570" type="line"/>
      <point x="40" y="308" type="line"/>
    </contour>
    <contour>
      <point x="352" y="298" type="curve"/>
      <point x="492" y="298" type="line"/>
      <point x="492" y="425"/>
      <point x="386" y="458"/>
      <point x="294" y="458" type="curve" smooth="yes"/>
      <point x="211" y="458"/>
      <point x="130" y="431"/>
      <point x="130" y="308" type="curve"/>
      <point x="180" y="308" type="line"/>
      <point x="180" y="355"/>
      <point x="226" y="368"/>
      <point x="266" y="368" type="curve" smooth="yes"/>
      <point x="306" y="368"/>
      <point x="352" y="355"/>
    </contour>
  </outline>
  <lib>
    <dict>
      <key>com.schriftgestaltung.Glyphs.lastChange</key>
      <string>2024-06-17 15:07:55 +0000</string>
      <key>public.markColor</key>
      <string>0.67,0.95,0.38,1</string>
    </dict>
  </lib>
</glyph>
