<?xml version='1.0' encoding='UTF-8'?>
<glyph name="uni0156" format="2">
  <advance width="578"/>
  <unicode hex="0156"/>
  <outline>
    <component base="R"/>
    <component base="uni0326" xOffset="202"/>
  </outline>
  <lib>
    <dict>
      <key>com.schriftgestaltung.Glyphs.lastChange</key>
      <string>2024-06-19 07:51:58 +0000</string>
      <key>public.markColor</key>
      <string>0.67,0.95,0.38,1</string>
    </dict>
  </lib>
</glyph>
