<?xml version='1.0' encoding='UTF-8'?>
<glyph name="Wacute" format="2">
  <advance width="791"/>
  <unicode hex="1E82"/>
  <outline>
    <component base="W"/>
    <component base="acutecomb" xOffset="328" yOffset="230"/>
  </outline>
  <lib>
    <dict>
      <key>com.schriftgestaltung.Glyphs.lastChange</key>
      <string>2024-06-19 07:52:38 +0000</string>
      <key>public.markColor</key>
      <string>0.67,0.95,0.38,1</string>
    </dict>
  </lib>
</glyph>
